Descriptive statistics (and more)
…
if(!require(tidyverse)){install.packages("tidyverse")}
library(tidyverse)

if(!require(viridis)){install.packages("viridis")}
library(viridis)

LIPP <- read_csv("LIPP.csv")

1 Descriptive statistics  Some basics

As we saw before, you can get a general overview of your data by simply entering the object name:

LIPP

## # A tibble: 163,655 x 28
##    speaker_id  year sex   filipino_id language english_status vowel stress
##         <dbl> <dbl> <chr>       <dbl> <chr>    <chr>          <chr>  <dbl>
##  1        201  1955 fema           3 Tagalog  L2             AY         1
##  2        201  1955 fema           3 Tagalog  L2             EY         1
##  3        201  1955 fema           3 Tagalog  L2             IH         1
##  4        201  1955 fema           3 Tagalog  L2             OW         1
##  5        201  1955 fema           3 Tagalog  L2             IY         0
##  6        201  1955 fema           3 Tagalog  L2             AE         1
##  7        201  1955 fema           3 Tagalog  L2             AH         0
##  8        201  1955 fema           3 Tagalog  L2             AY         1
##  9        201  1955 fema           3 Tagalog  L2             AO         1
## 10        201  1955 fema           3 Tagalog  L2             AH         0
## #  with 163,645 more rows, and 20 more variables: vowel_type <chr>, F1 <dbl>,
## #   F2 <dbl>, F3 <dbl>, dur <dbl>, pre_seg <chr>, fol_seg <chr>,
## #   fol_voice <chr>, fol_manner <chr>, fol_place <chr>, F1_20 <dbl>,
## #   F1_35 <dbl>, F1_50 <dbl>, F1_65 <dbl>, F1_80 <dbl>, F2_20 <dbl>,
## #   F2_35 <dbl>, F2_50 <dbl>, F2_65 <dbl>, F2_80 <dbl>
…
