Part Two: Distributions
…
As we can see, the result here is still significant even in distinguishing between a mean and predicted value which are so close together, indicating how powerful the t-test can be. However, we should note carefully the difference between this and the earlier version where the mean was compared to a predicted value of zero: while both p-values are quite small, indicative of significance (i.e.reject the null hypothesis), the t-values are drastically different, indicating the relative effect size in each case. The first comparison to mean = zero has a t-value of 1571.6, while the second comparison to mean = 1715 has a t-value of only 6.4. So, the second tests output do tell us that the mean is definitely not 1715, but they also suggest that its not very far away from that value, whereas the much higher t-value of the first test indicates that the mean is indeed quite far from zero.

At any rate, when it comes to linguistic data, we are often looking at comparing across two groups, so the two-sample t-test is probably the more common implementation. Because the variable of sex/gender only has two levels in our data, male vs.female, the earlier 2-sample t-test covered everything we wanted to look at to evaluate the distributions relative to each other. Lets next explore the use of the t-test a bit more using some of the other variables in the data file. We can get a quick view of the whole data table by simply entering its name in R.

LIPP

## # A tibble: 163,655 x 14
##    speaker_id language lang_status  year sex   filipino_id vowel vowel_type
##         <dbl> <chr>    <chr>       <dbl> <chr>       <dbl> <chr> <chr>     
##  1        201 Tagalog  L2           1955 fema           3 AY    diphthong 
##  2        201 Tagalog  L2           1955 fema           3 EY    tense     
##  3        201 Tagalog  L2           1955 fema           3 IH    lax       
##  4        201 Tagalog  L2           1955 fema           3 OW    tense     
##  5        201 Tagalog  L2           1955 fema           3 IY    tense     
##  6        201 Tagalog  L2           1955 fema           3 AE    lax       
##  7        201 Tagalog  L2           1955 fema           3 AH    lax       
##  8        201 Tagalog  L2           1955 fema           3 AY    diphthong 
##  9        201 Tagalog  L2           1955 fema           3 AO    tense     
## 10        201 Tagalog  L2           1955 fema           3 AH    lax       
## #  with 163,645 more rows, and 6 more variables: F1 <dbl>, F2 <dbl>,
## #   dur <dbl>, plt_voice <chr>, pre_seg <chr>, fol_seg <chr>
…
