Distributions
…
As we can see, the result here is still significant even in distinguishing between a mean and predicted value which are so close together, indicating how powerful the t-test can be. However, we should note carefully the difference between this and the earlier version where the mean was compared to a predicted value of zero: while both p values are quite small, indicative of significance (i.e.reject the null hypothesis), the t values are drastically different, indicating the relative effect size in each case. The first comparison to mean = zero has a t value of 1571.6, while the second comparison to mean = 1715 has a t value of only 6.4. So, the second tests output does tell us that the mean is definitely not 1715, but also suggests that its not very far away from 1715, whereas the much higher t value of the first test indicates that the mean is indeed quite far from zero.

At any rate, when it comes to linguistic data, we are often looking at comparing across two groups, so the two-sample t-test is probably the more common implementation. Because the variable of sex/gender only has two levels in our data, male vs.female, the earlier 2-sample t-test covered everything we wanted to look at to evaluate the distributions relative to each other. Lets next explore the use of the t-test a bit more using some of the other variables in the data file. We can get a quick view of the whole data table by simply entering its name in R.

LIPP

## # A tibble: 163,655 x 28
##    speaker_id  year sex   filipino_id language english_status vowel stress
##         <dbl> <dbl> <chr>       <dbl> <chr>    <chr>          <chr>  <dbl>
##  1        201  1955 fema           3 Tagalog  L2             AY         1
##  2        201  1955 fema           3 Tagalog  L2             EY         1
##  3        201  1955 fema           3 Tagalog  L2             IH         1
##  4        201  1955 fema           3 Tagalog  L2             OW         1
##  5        201  1955 fema           3 Tagalog  L2             IY         0
##  6        201  1955 fema           3 Tagalog  L2             AE         1
##  7        201  1955 fema           3 Tagalog  L2             AH         0
##  8        201  1955 fema           3 Tagalog  L2             AY         1
##  9        201  1955 fema           3 Tagalog  L2             AO         1
## 10        201  1955 fema           3 Tagalog  L2             AH         0
## #  with 163,645 more rows, and 20 more variables: vowel_type <chr>, F1 <dbl>,
## #   F2 <dbl>, F3 <dbl>, dur <dbl>, pre_seg <chr>, fol_seg <chr>,
## #   fol_voice <chr>, fol_manner <chr>, fol_place <chr>, F1_20 <dbl>,
## #   F1_35 <dbl>, F1_50 <dbl>, F1_65 <dbl>, F1_80 <dbl>, F2_20 <dbl>,
## #   F2_35 <dbl>, F2_50 <dbl>, F2_65 <dbl>, F2_80 <dbl>
…
